The WIPO Manual on Open Source Patent Analytics
…
12.8 Country Trends using spread()

There are two basic data formats: long and wide. Our pizza dataset is in long format because each column is a variable (e.g. publication_country) and each row in publication_country contains a country name. This is the most common and useful data format.

However, in some cases, such as infogr.am our visualisation software will expect the data to be in wide format. In this case each country name would become a variable (column name) with the years forming the rows and the number of records per year the observations. The key to this is the tidyr() function spread().

As above we will start off by using select() to create a table with the fields that we want. We will then use mutate() to add a numeric field and then count up that data. To illustrate the process run this code (we will not create an object).

library(dplyr)
select(pizza_1990_2012, publication_country_name, publication_number, pubyear) %>% 
    mutate(n = sum(publication_number = 1)) %>% count(publication_country_name, 
    pubyear, wt = n) %>% print()

## Source: local data frame [223 x 3]
## Groups: publication_country_name [?]
## 
##    publication_country_name pubyear    nn
##                       <chr>   <int> <dbl>
## 1                    Canada    1990    19
## 2                    Canada    1991    49
## 3                    Canada    1992    66
## 4                    Canada    1993    59
## 5                    Canada    1994    50
## 6                    Canada    1995    39
## 7                    Canada    1996    36
## 8                    Canada    1997    45
## 9                    Canada    1998    46
## 10                   Canada    1999    47
## # ... with 213 more rows
…
write_csv(country_totals, "pizza_country_1990_2012.csv")

To restore the data to long format we would need to use gather() as the counterpart to spread(). gather() takes a dataset, a key for the name of the column we want to gather the countries into, a value for the numeric count (in this case n), and finally the positions of the columns to gather in. Note here that we need to look up the column positions in country_totals (e.g.using View()) or count the columns using ncol(country_totals).

library(dplyr)
gather(country_totals, year, n, 2:24) %>% print()

## Source: local data frame [368 x 3]
## Groups: publication_country_name [16]
## 
##        publication_country_name  year     n
##                           <chr> <chr> <dbl>
## 1                        Canada  1990    19
## 2                         China  1990    NA
## 3  Eurasian Patent Organization  1990    NA
## 4        European Patent Office  1990    22
## 5                       Germany  1990     2
## 6                        Israel  1990    NA
## 7                         Japan  1990    NA
## 8            Korea, Republic of  1990    NA
## 9                        Mexico  1990    NA
## 10   Patent Co-operation Treaty  1990     8
## # ... with 358 more rows
…
