The WIPO Manual on Open Source Patent Analytics
…
Sys.setenv("plotly_username" = "your_plotly_username")
Sys.setenv("plotly_api_key" = "your_api_key")

Next we will load a dataset of WIPO Patentscope data containing sample data on patent documents containing the word pizza organised by country and year (pcy = pizza, country, year).

library(readr)
pcy <- read_csv("https://github.com/wipo-analytics/opensource-patent-analytics/raw/master/2_datasets/pizza_medium_clean/pcy.csv")

Because patent data generally contains a data cliff for more recent years we will filter out recent years using filter() from the dplyr package by specifying a year that is less than or equal to 2012. To take out the long tail of limited historic data we will specify greater than or equal to 1990.

library(dplyr)
pcy <- filter(pcy, pubyear >= 1990, pubyear <= 2012) %>%
  print()

## # A tibble: 223 x 4
##    pubcountry pubcode pubyear     n
##    <chr>      <chr>     <int> <int>
##  1 Canada     CA         1990    19
##  2 Canada     CA         1991    49
##  3 Canada     CA         1992    66
##  4 Canada     CA         1993    59
##  5 Canada     CA         1994    50
##  6 Canada     CA         1995    39
##  7 Canada     CA         1996    36
##  8 Canada     CA         1997    45
##  9 Canada     CA         1998    46
## 10 Canada     CA         1999    47
## # ... with 213 more rows
…
Then we join the two tables and rename n to records for graphing.

library(dplyr)
total_grouped <- left_join(pcy, total_group) %>% 
  rename(records = n)

## Joining, by = "pubcode"

total_grouped

## # A tibble: 223 x 5
##    pubcountry pubcode pubyear records group
##    <chr>      <chr>     <int>   <int> <int>
##  1 Canada     CA         1990      19     3
##  2 Canada     CA         1991      49     3
##  3 Canada     CA         1992      66     3
##  4 Canada     CA         1993      59     3
##  5 Canada     CA         1994      50     3
##  6 Canada     CA         1995      39     3
##  7 Canada     CA         1996      36     3
##  8 Canada     CA         1997      45     3
##  9 Canada     CA         1998      46     3
## 10 Canada     CA         1999      47     3
## # ... with 213 more rows
…
readr will display a warning for the file arising from its efforts to parse publication dates on import. We will ignore this as we will not be using this field.

As an alternative to importing directly from Github download the file and in RStudio use File > Import Dataset > From .csv. If you experience problems with direct import of a file the File > Import Dataset approach will give you a range of easy to use controls for figuring this out (e.g. where .csv is actually a tab separated file).

##Viewing Data

We can view data in a variety of ways.

In the console:

pizza

## # A tibble: 9,996 × 31
##                                                             applicants_cleaned
##                                                                          <chr>
## 1                                                                         <NA>
## 2  Ventimeglia Jamie Joseph; Ventimeglia Joel Michael; Ventimeglia Thomas Jose
## 3                                             Cordova Robert; Martinez Eduardo
## 4                                                      Lazarillo De Tormes S L
## 5                                                                         <NA>
## 6                                                           Depoortere, Thomas
## 7                                                             Frisco Findus Ag
## 8                                                   Bicycle Tools Incorporated
## 9                                                           Castiglioni, Carlo
## 10                                                                        <NA>
## # ... with 9,986 more rows, and 30 more variables:
## #   applicants_cleaned_type <chr>, applicants_organisations <chr>,
## #   applicants_original <chr>, inventors_cleaned <chr>,
## #   inventors_original <chr>, ipc_class <chr>, ipc_codes <chr>,
## #   ipc_names <chr>, ipc_original <chr>, ipc_subclass_codes <chr>,
## #   ipc_subclass_detail <chr>, ipc_subclass_names <chr>,
## #   priority_country_code <chr>, priority_country_code_names <chr>,
## #   priority_data_original <chr>, priority_date <chr>,
## #   publication_country_code <chr>, publication_country_name <chr>,
…
library(dplyr)
pizza_number <- mutate(pizza_number, n = sum(publication_number = 1))

When we view pizza_number we now have a value of 1 in the column n for each publication number. Note that in patent data a priority, application, publication or family number may occur multiple times and we would want to reduce the dataset to distinct records. For that we would use n_distinct(pizza_number$publication_number) from dplyr or unique(pizza_number$publication_number) from base R. Because the publication numbers are unique we can proceed.

###Counting data using count()

At the moment, we have multiple instances of the same year (where a patent publication occurs in that year). We now want to calculate how many of our documents were published in each year. To do that we will use the dplyr function count(). We will use the publication_year and add wt = (for weight) with n as the value to count.

library(dplyr)
pizza_total <- count(pizza_number, publication_year, wt = n)
pizza_total

## # A tibble: 58 × 2
##    publication_year    nn
##               <int> <dbl>
## 1              1940     1
## 2              1954     1
## 3              1956     1
## 4              1957     1
## 5              1959     1
## 6              1962     1
## 7              1964     2
## 8              1966     1
## 9              1967     1
## 10             1968     8
## # ... with 48 more rows
…
## [1] 9996

So, all is good and we can move on. The $ sign is one of the main ways of subsetting to tell R that we want to work with a specific column (the others are “[” and “[[”).

###Rename a field with rename()

Next we will use rename() from dplyr to rename the fields. Note that understanding which field require quote marks can take some effort. In this case renaming the character vector publication_year as “pubyear” requires quotes while renaming the numeric vector “n” does not.

library(dplyr)
pizza_total <- rename(pizza_total, pubyear = publication_year, publications = nn) %>% 
    print()

## # A tibble: 58 × 2
##    pubyear publications
##      <int>        <dbl>
## 1     1940            1
## 2     1954            1
## 3     1956            1
## 4     1957            1
## 5     1959            1
## 6     1962            1
## 7     1964            2
## 8     1966            1
## 9     1967            1
## 10    1968            8
## # ... with 48 more rows
…
We will limit our data to specific values using the dplyr function filter().

###Filter data using filter()

In contrast with select() which works with columns, filter() in dplyr works with rows. In this case we need to filter on the values in the pubyear column. To remove the data prior to 1990 we will use the greater than or equal to operator >= on the pubyear column and we will use the less than or equal to <= operator on the values after 2012.

One strength of filter() in dplyr is that it is easy to filter on multiple values in the same expression (unlike the very similar filter function in base R). The use of filter() will also remove the 30 records where the year is recorded as NA (Not Available). We will write this file to disk using the simple write_csv() from readr. To use write_csv() we first name our data (pizza_total) and then provide a file name with a .csv extension. In this case and other examples below we have used a descriptive file name bearing in mind that Windows systems have limitations on the length and type of characters that can be used in file names.

library(dplyr)
library(readr)
pizza_total <- filter(pizza_total, pubyear >= 1990, pubyear <= 2012)
write_csv(pizza_total, "pizza_total_1990_2012.csv")
pizza_total

## # A tibble: 23 × 2
##    pubyear publications
##      <int>        <dbl>
## 1     1990          139
## 2     1991          154
## 3     1992          212
## 4     1993          201
## 5     1994          162
## 6     1995          173
## 7     1996          180
## 8     1997          186
## 9     1998          212
## 10    1999          290
## # ... with 13 more rows
…
In the standard code we typed df nine times to arrive at the same result. Using pipes we typed df1 once. Of greater importance is that the use of pipes simplifies the structure of R code by introducing a basic “this” then “that” logic which makes it easier to understand.

One point to note about this code is that qplot() requires us to name our data (in this case df1). However, df1 is actually the final output of the code and does not exist as an input object before the final line is run. So, if we attempt to use data = df1 in qplot() we will receive an error message. The way around this is to use . in place of our data object. That way qplot() will know we want to graph the outputs of the earlier code. Finally, we need to add an explicit call to print() to display the graph (without this the code will work but we will not see the graph).

If we now inspect the structure of the df1 object (using str(df1)) in the console, it will be a list. The reason for this is that it is an object with mixed components, including a data.frame with our data plus additional data setting out the contents of the plot. As there is no direct link between R and our infographics software this will create problems for us later because the infographics software won’t know how to interpret the list object. So, it is generally a good idea to use a straight data.frame by excluding the call to qplot and adding it later when needed as follows.

library(dplyr)
library(ggplot2)
df2 <- select(pizza, publication_number, publication_year) %>% mutate(n = sum(publication_number = 1)) %>% 
    count(publication_year, wt = n) %>% rename(pubyear = publication_year, publications = nn) %>% 
    filter(pubyear >= 1990, pubyear <= 2012) %>% print()

## # A tibble: 23 × 2
##    pubyear publications
##      <int>        <dbl>
## 1     1990          139
## 2     1991          154
## 3     1992          212
## 4     1993          201
## 5     1994          162
## 6     1995          173
## 7     1996          180
## 8     1997          186
## 9     1998          212
## 10    1999          290
## # ... with 13 more rows
…
Google IPC

Google phrases

We need to make sure that any data that we generate from our raw dataset matches the period for the pizza_total dataset. If we do not do this there is a risk that we will generate subdatasets with counts for the raw pizza dataset.

To handle this we will use filter() to create a new baseline dataset with an unambiguous name.

library(dplyr)
pizza_1990_2012 <- rename(pizza, pubyear = publication_year) %>% filter(pubyear >= 
    1990, pubyear <= 2012)
pizza_1990_2012

## # A tibble: 8,262 × 31
##                    applicants_cleaned applicants_cleaned_type
##                                 <chr>                   <chr>
## 1                                <NA>                  People
## 2             Lazarillo De Tormes S L               Corporate
## 3                                <NA>                  People
## 4                  Depoortere, Thomas                  People
## 5                    Frisco Findus Ag               Corporate
## 6          Bicycle Tools Incorporated               Corporate
## 7                  Castiglioni, Carlo                  People
## 8                                <NA>                  People
## 9               Bujalski, Wlodzimierz                  People
## 10 Ehrno Flexible A/S; Stergaard, Ole       Corporate; People
## # ... with 8,252 more rows, and 29 more variables:
## #   applicants_organisations <chr>, applicants_original <chr>,
## #   inventors_cleaned <chr>, inventors_original <chr>, ipc_class <chr>,
## #   ipc_codes <chr>, ipc_names <chr>, ipc_original <chr>,
## #   ipc_subclass_codes <chr>, ipc_subclass_detail <chr>,
## #   ipc_subclass_names <chr>, priority_country_code <chr>,
## #   priority_country_code_names <chr>, priority_data_original <chr>,
## #   priority_date <chr>, publication_country_code <chr>,
## #   publication_country_name <chr>, publication_date <chr>,
…
##Country Trends using spread()

There are two basic data formats: long and wide. Our pizza dataset is in long format because each column is a variable (e.g. publication_country) and each row in publication_country contains a country name. This is the most common and useful data format.

However, in some cases, such as infogr.am our visualisation software will expect the data to be in wide format. In this case each country name would become a variable (column name) with the years forming the rows and the number of records per year the observations. The key to this is the tidyr() function spread().

As above we will start off by using select() to create a table with the fields that we want. We will then use mutate() to add a numeric field and then count up that data. To illustrate the process run this code (we will not create an object).

library(dplyr)
select(pizza_1990_2012, publication_country_name, publication_number, pubyear) %>% 
    mutate(n = sum(publication_number = 1)) %>% count(publication_country_name, 
    pubyear, wt = n) %>% print()

## Source: local data frame [223 x 3]
## Groups: publication_country_name [?]
## 
##    publication_country_name pubyear    nn
##                       <chr>   <int> <dbl>
## 1                    Canada    1990    19
## 2                    Canada    1991    49
## 3                    Canada    1992    66
## 4                    Canada    1993    59
## 5                    Canada    1994    50
## 6                    Canada    1995    39
## 7                    Canada    1996    36
## 8                    Canada    1997    45
## 9                    Canada    1998    46
## 10                   Canada    1999    47
## # ... with 213 more rows

When we run this code we will see the results in long format. We now want to take our publication_country_name column and spread it to form columns with nn as the values.

In using spread note that it takes a data argument (pizza_1990_2012), a key (publication_country_name), and value column (nn) (created from count()). We are using pipes so the data only needs to be named in the first line. For additional arguments see ?spread().

library(dplyr)
library(tidyr)
country_totals <- select(pizza_1990_2012, publication_country_name, publication_number, pubyear) %>%
  mutate(n = sum(publication_number = 1)) %>% 
  count(publication_country_name, pubyear, wt = n) %>% # note n
  spread(publication_country_name, nn) # note double nn
country_totals

## # A tibble: 23 × 17
##    pubyear Canada China `Eurasian Patent Organization`
## *    <int>  <dbl> <dbl>                          <dbl>
## 1     1990     19    NA                             NA
## 2     1991     49    NA                             NA
## 3     1992     66    NA                             NA
## 4     1993     59    NA                             NA
## 5     1994     50    NA                             NA
## 6     1995     39    NA                             NA
## 7     1996     36     1                             NA
## 8     1997     45    NA                             NA
## 9     1998     46    NA                             NA
## 10    1999     47     2                              2
## # ... with 13 more rows, and 13 more variables: `European Patent
## #   Office` <dbl>, Germany <dbl>, Israel <dbl>, Japan <dbl>, `Korea,
## #   Republic of` <dbl>, Mexico <dbl>, `Patent Co-operation Treaty` <dbl>,
## #   Portugal <dbl>, `Russian Federation` <dbl>, Singapore <dbl>, `South
## #   Africa` <dbl>, Spain <dbl>, `United States of America` <dbl>
…
write_csv(country_totals, "pizza_country_1990_2012.csv")

To restore the data to long format we would need to use gather() as the counterpart to spread(). gather() takes a dataset, a key for the name of the column we want to gather the countries into, a value for the numeric count (in this case n), and finally the positions of the columns to gather in. Note here that we need to look up the column positions in country_totals (e.g. using View()) or count the columns using ncol(country_totals).

library(dplyr)
gather(country_totals, year, n, 2:24) %>% print()

## Source: local data frame [368 x 3]
## Groups: publication_country_name [16]
## 
##        publication_country_name  year     n
##                           <chr> <chr> <dbl>
## 1                        Canada  1990    19
## 2                         China  1990    NA
## 3  Eurasian Patent Organization  1990    NA
## 4        European Patent Office  1990    22
## 5                       Germany  1990     2
## 6                        Israel  1990    NA
## 7                         Japan  1990    NA
## 8            Korea, Republic of  1990    NA
## 9                        Mexico  1990    NA
## 10   Patent Co-operation Treaty  1990     8
## # ... with 358 more rows
…
The tidyr package contains three functions that are very useful when working with patent data. When dealing with concatenated fields in columns the key function is separate_rows.

Here we will work with the applicants_cleaned field in the pizza dataset. This field contains concatenated names with a ; as the separator. For example, on lines 1_9 there are single applicant names or NA values. However, on lines 10 and line 59 we see:

Ehrno Flexible A/S; Stergaard, Ole
Farrell Brian; Mcnulty John; Vishoot Lisa

The problem here is that when we are dealing with thousands of lines of applicant names we don’t know how many names might be concatenated into each cell as a basis for separating the data into columns. Once we had split the columns (for example using Text to Columns in Excel) we would then need to work out how to gather the columns into rows. The separate_rows() function from tidyr makes light work of this problem. To use the function we name the dataset, the column we want to separate into rows and the separator (sep).

library(dplyr)
library(tidyr)
pizza1 <- separate_rows(pizza_1990_2012, applicants_cleaned, sep = ";")
pizza1

## # A tibble: 12,729 × 31
##    applicants_cleaned_type   applicants_organisations
##                      <chr>                      <chr>
## 1                   People                       <NA>
## 2                Corporate    Lazarillo De Tormes S L
## 3                   People                       <NA>
## 4                   People                       <NA>
## 5                Corporate           Frisco Findus Ag
## 6                Corporate Bicycle Tools Incorporated
## 7                   People                       <NA>
## 8                   People                       <NA>
## 9                   People                       <NA>
## 10       Corporate; People         Ehrno Flexible A/S
## # ... with 12,719 more rows, and 29 more variables:
## #   applicants_original <chr>, inventors_cleaned <chr>,
## #   inventors_original <chr>, ipc_class <chr>, ipc_codes <chr>,
## #   ipc_names <chr>, ipc_original <chr>, ipc_subclass_codes <chr>,
## #   ipc_subclass_detail <chr>, ipc_subclass_names <chr>,
## #   priority_country_code <chr>, priority_country_code_names <chr>,
## #   priority_data_original <chr>, priority_date <chr>,
## #   publication_country_code <chr>, publication_country_name <chr>,
## #   publication_date <chr>, publication_date_original <chr>,
…
